module github.com/strukturag/nextcloud-spreed-signaling

go 1.20

require (
	github.com/dlintw/goconf v0.0.0-20120228082610-dcc070983490
	github.com/golang-jwt/jwt/v4 v4.5.0
	github.com/google/uuid v1.4.0
	github.com/gorilla/mux v1.8.1
	github.com/gorilla/securecookie v1.1.2
	github.com/gorilla/websocket v1.5.1
	github.com/mailru/easyjson v0.7.7
	github.com/nats-io/nats-server/v2 v2.10.7
	github.com/nats-io/nats.go v1.31.0
	github.com/notedit/janus-go v0.0.0-20200517101215-10eb8b95d1a0
	github.com/oschwald/maxminddb-golang v1.12.0
	github.com/pion/sdp/v3 v3.0.6
	github.com/prometheus/client_golang v1.17.0
	go.etcd.io/etcd/api/v3 v3.5.11
	go.etcd.io/etcd/client/pkg/v3 v3.5.11
	go.etcd.io/etcd/client/v3 v3.5.11
	go.etcd.io/etcd/server/v3 v3.5.11
	google.golang.org/grpc v1.59.0
	google.golang.org/grpc/cmd/protoc-gen-go-grpc v1.3.0
	google.golang.org/protobuf v1.31.0
)

require (
	github.com/beorn7/perks v1.0.1 // indirect
	github.com/cenkalti/backoff/v4 v4.2.1 // indirect
	github.com/cespare/xxhash/v2 v2.2.0 // indirect
	github.com/coreos/go-semver v0.3.0 // indirect
	github.com/coreos/go-systemd/v22 v22.3.2 // indirect
	github.com/davecgh/go-spew v1.1.1 // indirect
	github.com/dustin/go-humanize v1.0.0 // indirect
	github.com/go-logr/logr v1.3.0 // indirect
	github.com/go-logr/stdr v1.2.2 // indirect
	github.com/gogo/protobuf v1.3.2 // indirect
	github.com/golang/protobuf v1.5.3 // indirect
	github.com/google/btree v1.0.1 // indirect
	github.com/grpc-ecosystem/go-grpc-middleware v1.3.0 // indirect
	github.com/grpc-ecosystem/go-grpc-prometheus v1.2.0 // indirect
	github.com/grpc-ecosystem/grpc-gateway v1.16.0 // indirect
	github.com/grpc-ecosystem/grpc-gateway/v2 v2.16.0 // indirect
	github.com/jonboulle/clockwork v0.2.2 // indirect
	github.com/josharian/intern v1.0.0 // indirect
	github.com/json-iterator/go v1.1.12 // indirect
	github.com/klauspost/compress v1.17.4 // indirect
	github.com/matttproud/golang_protobuf_extensions v1.0.4 // indirect
	github.com/minio/highwayhash v1.0.2 // indirect
	github.com/modern-go/concurrent v0.0.0-20180306012644-bacd9c7ef1dd // indirect
	github.com/modern-go/reflect2 v1.0.2 // indirect
	github.com/nats-io/jwt/v2 v2.5.3 // indirect
	github.com/nats-io/nkeys v0.4.6 // indirect
	github.com/nats-io/nuid v1.0.1 // indirect
	github.com/pion/randutil v0.1.0 // indirect
	github.com/prometheus/client_model v0.4.1-0.20230718164431-9a2bf3000d16 // indirect
	github.com/prometheus/common v0.44.0 // indirect
	github.com/prometheus/procfs v0.11.1 // indirect
	github.com/sirupsen/logrus v1.7.0 // indirect
	github.com/soheilhy/cmux v0.1.5 // indirect
	github.com/spf13/pflag v1.0.5 // indirect
	github.com/tmc/grpc-websocket-proxy v0.0.0-20201229170055-e5319fda7802 // indirect
	github.com/xiang90/probing v0.0.0-20190116061207-43a291ad63a2 // indirect
	go.etcd.io/bbolt v1.3.8 // indirect
	go.etcd.io/etcd/client/v2 v2.305.11 // indirect
	go.etcd.io/etcd/pkg/v3 v3.5.11 // indirect
	go.etcd.io/etcd/raft/v3 v3.5.11 // indirect
	go.opentelemetry.io/contrib/instrumentation/google.golang.org/grpc/otelgrpc v0.46.0 // indirect
	go.opentelemetry.io/otel v1.20.0 // indirect
	go.opentelemetry.io/otel/exporters/otlp/otlptrace v1.20.0 // indirect
	go.opentelemetry.io/otel/exporters/otlp/otlptrace/otlptracegrpc v1.20.0 // indirect
	go.opentelemetry.io/otel/metric v1.20.0 // indirect
	go.opentelemetry.io/otel/sdk v1.20.0 // indirect
	go.opentelemetry.io/otel/trace v1.20.0 // indirect
	go.opentelemetry.io/proto/otlp v1.0.0 // indirect
	go.uber.org/atomic v1.7.0 // indirect
	go.uber.org/multierr v1.6.0 // indirect
	go.uber.org/zap v1.17.0 // indirect
	golang.org/x/crypto v0.16.0 // indirect
	golang.org/x/net v0.17.0 // indirect
	golang.org/x/sys v0.15.0 // indirect
	golang.org/x/text v0.14.0 // indirect
	golang.org/x/time v0.5.0 // indirect
	google.golang.org/genproto v0.0.0-20230822172742-b8732ec3820d // indirect
	google.golang.org/genproto/googleapis/api v0.0.0-20230822172742-b8732ec3820d // indirect
	google.golang.org/genproto/googleapis/rpc v0.0.0-20230822172742-b8732ec3820d // indirect
	gopkg.in/natefinch/lumberjack.v2 v2.0.0 // indirect
	gopkg.in/yaml.v2 v2.4.0 // indirect
	sigs.k8s.io/yaml v1.2.0 // indirect
)
